{
  "menu": [
    {
      "url": "dashboard/user2",
      "name": "Dashboard",
      "badgeClass": "badge badge-light-warning rounded-pill ms-auto me-1",
      "icon": "home",
      "slug": "dashboard-user2"
    }
  ]
}